BEGIN;
CREATE SCHEMA faker;
CREATE EXTENSION faker SCHEMA faker CASCADE;
NOTICE:  installing required extension "plpython3u"
SELECT faker.faker('fr_FR');
 faker 
-------
 t
(1 row)

SELECT faker.seed(4321);
 seed 
------
 t
(1 row)

SELECT faker.ean() = '4061251029079';
 ?column? 
----------
 t
(1 row)

SELECT faker.ean(8) = '46936677';
 ?column? 
----------
 t
(1 row)

SELECT faker.ean(length=>13) = '2701827349386';
 ?column? 
----------
 t
(1 row)

SAVEPOINT before_assertion_error;
-- Hide error context because it may differ between PG major versions
\set SHOW_CONTEXT never
-- This should return an error
SELECT faker.ean(length=>5);
ERROR:  AssertionError: length can only be 8 or 13
ROLLBACK TO SAVEPOINT before_assertion_error;
-- Check issue #5
SELECT faker.email();
       email       
-------------------
 oclerc@tiscali.fr
(1 row)

ROLLBACK;
